<svg id="chat" xmlns="http://www.w3.org/2000/svg" viewBox="0 0 137 137.01">
    
    <defs>
    <style>
        .duh {fill:#f99695;
        }
        </style>
    </defs>
    
    <title>findlove</title><g id="magnyfying_glass" data-name="magnyfying glass"><path class="duh" d="M934.93-236.22l-11.67,11.67-0.19.18,22.73,22.73a7.82,7.82,0,0,0,11.06,0l1-1a7.82,7.82,0,0,0,0-11.06l-22.73-22.73Z" transform="translate(-823.13 336.34)"/><path class="duh" d="M931.76-243.58a4.39,4.39,0,0,0-1.3-3,4.39,4.39,0,0,0-3-1.3,4.06,4.06,0,0,0-3,1.19L912.78-235a4.26,4.26,0,0,0,.11,6,4.39,4.39,0,0,0,3,1.3,4.07,4.07,0,0,0,3-1.19l11.67-11.67A4.07,4.07,0,0,0,931.76-243.58Z" transform="translate(-823.13 336.34)"/><path class="duh" d="M874.62-336.34a51.15,51.15,0,0,0-36.41,15.08,51.15,51.15,0,0,0-15.08,36.41,51.15,51.15,0,0,0,15.08,36.41,51.15,51.15,0,0,0,36.41,15.08,51.12,51.12,0,0,0,29.89-9.55l3.73,3.73,0.18-.19h0l11.67-11.67,0.19-.18L916.55-255a51.1,51.1,0,0,0,9.55-29.89A51.15,51.15,0,0,0,911-321.26,51.15,51.15,0,0,0,874.62-336.34Zm24.62,76.11a34.4,34.4,0,0,1-48.65,0,34.4,34.4,0,0,1,0-48.65,34.4,34.4,0,0,1,48.65,0A34.4,34.4,0,0,1,899.24-260.24Z" transform="translate(-823.13 336.34)"/></g><path class="duh" id="heart" d="M897.86-295.66a13.87,13.87,0,0,0-10.36-8.43,14.08,14.08,0,0,0-2.09-.16c-5,0-8.69,3.76-10.79,6-2.11-2.21-5.74-6-10.79-6a14.11,14.11,0,0,0-2.09.16,13.86,13.86,0,0,0-10.36,8.43c-2.63,5.9-1.83,12.94,2.13,18.82,4.24,6.3,20.59,16,21,16s17-9.67,21.22-16C899.7-282.72,900.49-289.75,897.86-295.66Zm-34,.44a5.12,5.12,0,0,0-.75.06,5,5,0,0,0-3.45,3.17,2.35,2.35,0,0,1-2.15,1.4,2.35,2.35,0,0,1-1-.2,2.35,2.35,0,0,1-1.2-3.11,9.58,9.58,0,0,1,7.06-5.91,9.8,9.8,0,0,1,1.45-.11,2.35,2.35,0,0,1,2.35,2.35A2.35,2.35,0,0,1,863.82-295.22Z" transform="translate(-823.13 336.34)"/></svg>